%YAML 1.1
%TAG !u! tag:unity3d.com,2011:
--- !u!1045 &1
EditorBuildSettings:
  m_ObjectHideFlags: 0
  serializedVersion: 2
  m_Scenes:
  - enabled: 1
    path: Assets/Scenes/JOMS.unity
    guid: 8b6509d349faeee4e8e158a244ac0911
  - enabled: 1
    path: Assets/Scenes/menu.unity
    guid: 2cda990e2423bbf4892e6590ba056729
  - enabled: 1
    path: Assets/Scenes/SettingsSceen.unity
    guid: 83f1a7b8b1508ad46815f57f8be5abff
  - enabled: 1
    path: Assets/Scenes/TestScene.unity
    guid: 143c808f736941c419102299cae8f7db
  m_configObjects: {}
