%YAML 1.1
%TAG !u! tag:unity3d.com,2011:
--- !u!114 &6810373337529438703
MonoBehaviour:
  m_ObjectHideFlags: 0
  m_CorrespondingSourceObject: {fileID: 0}
  m_PrefabInstance: {fileID: 0}
  m_PrefabAsset: {fileID: 0}
  m_GameObject: {fileID: 241994968493271629}
  m_Enabled: 1
  m_EditorHideFlags: 0
  m_Script: {fileID: 11500000, guid: d7f2c14e0e34c184a963fa0c387208aa, type: 3}
  m_Name: 
  m_EditorClassIdentifier: 
  bulletPos: {x: 0, y: 0}
--- !u!1001 &5340157437039040527
PrefabInstance:
  m_ObjectHideFlags: 0
  serializedVersion: 2
  m_Modification:
    m_TransformParent: {fileID: 0}
    m_Modifications:
    - target: {fileID: 5280384530621297217, guid: 5906405e33d94b443a23dbe0b2805d61,
        type: 3}
      propertyPath: m_Constraints
      value: 0
      objectReference: {fileID: 0}
    - target: {fileID: 5280384530621297218, guid: 5906405e33d94b443a23dbe0b2805d61,
        type: 3}
      propertyPath: m_Name
      value: Bullet_Left
      objectReference: {fileID: 0}
    - target: {fileID: 5280384530621297222, guid: 5906405e33d94b443a23dbe0b2805d61,
        type: 3}
      propertyPath: m_LocalPosition.x
      value: -4.8535
      objectReference: {fileID: 0}
    - target: {fileID: 5280384530621297222, guid: 5906405e33d94b443a23dbe0b2805d61,
        type: 3}
      propertyPath: m_LocalPosition.y
      value: -2.8069
      objectReference: {fileID: 0}
    - target: {fileID: 5280384530621297222, guid: 5906405e33d94b443a23dbe0b2805d61,
        type: 3}
      propertyPath: m_LocalPosition.z
      value: 0
      objectReference: {fileID: 0}
    - target: {fileID: 5280384530621297222, guid: 5906405e33d94b443a23dbe0b2805d61,
        type: 3}
      propertyPath: m_LocalRotation.x
      value: 0
      objectReference: {fileID: 0}
    - target: {fileID: 5280384530621297222, guid: 5906405e33d94b443a23dbe0b2805d61,
        type: 3}
      propertyPath: m_LocalRotation.y
      value: 0
      objectReference: {fileID: 0}
    - target: {fileID: 5280384530621297222, guid: 5906405e33d94b443a23dbe0b2805d61,
        type: 3}
      propertyPath: m_LocalRotation.z
      value: 0
      objectReference: {fileID: 0}
    - target: {fileID: 5280384530621297222, guid: 5906405e33d94b443a23dbe0b2805d61,
        type: 3}
      propertyPath: m_LocalRotation.w
      value: 1
      objectReference: {fileID: 0}
    - target: {fileID: 5280384530621297222, guid: 5906405e33d94b443a23dbe0b2805d61,
        type: 3}
      propertyPath: m_RootOrder
      value: 0
      objectReference: {fileID: 0}
    - target: {fileID: 5280384530621297222, guid: 5906405e33d94b443a23dbe0b2805d61,
        type: 3}
      propertyPath: m_LocalEulerAnglesHint.x
      value: 0
      objectReference: {fileID: 0}
    - target: {fileID: 5280384530621297222, guid: 5906405e33d94b443a23dbe0b2805d61,
        type: 3}
      propertyPath: m_LocalEulerAnglesHint.y
      value: 0
      objectReference: {fileID: 0}
    - target: {fileID: 5280384530621297222, guid: 5906405e33d94b443a23dbe0b2805d61,
        type: 3}
      propertyPath: m_LocalEulerAnglesHint.z
      value: 0
      objectReference: {fileID: 0}
    - target: {fileID: 5280384530621297222, guid: 5906405e33d94b443a23dbe0b2805d61,
        type: 3}
      propertyPath: m_LocalScale.x
      value: 3.1888924
      objectReference: {fileID: 0}
    - target: {fileID: 5280384530621297222, guid: 5906405e33d94b443a23dbe0b2805d61,
        type: 3}
      propertyPath: m_LocalScale.y
      value: 3.1888924
      objectReference: {fileID: 0}
    - target: {fileID: 5280384530621297222, guid: 5906405e33d94b443a23dbe0b2805d61,
        type: 3}
      propertyPath: m_LocalScale.z
      value: 3.1888924
      objectReference: {fileID: 0}
    m_RemovedComponents:
    - {fileID: -6484800644715404116, guid: 5906405e33d94b443a23dbe0b2805d61, type: 3}
  m_SourcePrefab: {fileID: 100100000, guid: 5906405e33d94b443a23dbe0b2805d61, type: 3}
--- !u!1 &241994968493271629 stripped
GameObject:
  m_CorrespondingSourceObject: {fileID: 5280384530621297218, guid: 5906405e33d94b443a23dbe0b2805d61,
    type: 3}
  m_PrefabInstance: {fileID: 5340157437039040527}
  m_PrefabAsset: {fileID: 0}
